^C:\DESARROLLO\C\SOLUCIÓN PARKINSONRV 2001\PARKINSON2011\RELEASE\APPRUNNER.OBJ|C:\DESARROLLO\C\SOLUCIÓN PARKINSONRV 2001\PARKINSON2011\RELEASE\BASEAPPLICATION.OBJ|C:\DESARROLLO\C\SOLUCIÓN PARKINSONRV 2001\PARKINSON2011\RELEASE\DEVICEDRIVER.OBJ|C:\DESARROLLO\C\SOLUCIÓN PARKINSONRV 2001\PARKINSON2011\RELEASE\EXPERIENCIA.OBJ|C:\DESARROLLO\C\SOLUCIÓN PARKINSONRV 2001\PARKINSON2011\RELEASE\EXPERIENCIA1.OBJ|C:\DESARROLLO\C\SOLUCIÓN PARKINSONRV 2001\PARKINSON2011\RELEASE\EXPERIENCIA2.OBJ|C:\DESARROLLO\C\SOLUCIÓN PARKINSONRV 2001\PARKINSON2011\RELEASE\EXPERIENCIAMANOS.OBJ|C:\DESARROLLO\C\SOLUCIÓN PARKINSONRV 2001\PARKINSON2011\RELEASE\FILEWRITER.OBJ|C:\DESARROLLO\C\SOLUCIÓN PARKINSONRV 2001\PARKINSON2011\RELEASE\IKELEMENT.OBJ|C:\DESARROLLO\C\SOLUCIÓN PARKINSONRV 2001\PARKINSON2011\RELEASE\J_ENVIAR.OBJ|C:\DESARROLLO\C\SOLUCIÓN PARKINSONRV 2001\PARKINSON2011\RELEASE\J_RECIBIR.OBJ|C:\DESARROLLO\C\SOLUCIÓN PARKINSONRV 2001\PARKINSON2011\RELEASE\MYCAMERAMAN.OBJ|C:\DESARROLLO\C\SOLUCIÓN PARKINSONRV 2001\PARKINSON2011\RELEASE\PARKINSON2011.EXE.EMBED.MANIFEST.RES|C:\DESARROLLO\C\SOLUCIÓN PARKINSONRV 2001\PARKINSON2011\RELEASE\PERSONAJE.OBJ|C:\DESARROLLO\C\SOLUCIÓN PARKINSONRV 2001\PARKINSON2011\RELEASE\SOCKET.OBJ|C:\DESARROLLO\C\SOLUCIÓN PARKINSONRV 2001\PARKINSON2011\RELEASE\STDAFX.OBJ
/ERRORREPORT:PROMPT /OUT:"C:\Desarrollo\C\Solución ParkinsonRV 2001\Release\Parkinson2011.exe" /INCREMENTAL /NOLOGO /LIBPATH:C:\Users\kelmer\Dropbox\Bretema\Gabriel\Adsapi\Lib /LIBPATH:"C:\Program Files\Advantech\Adsapi\Lib" /LIBPATH:"C:\Program Files (x86)\OpenNI\Lib" /LIBPATH:C:\Desarrollo\Ogre3D\lib\Release /LIBPATH:\Lib /LIBPATH:C:\Desarrollo\Ogre3D\boost_1_42\lib Adsapi32.lib kernel32.lib user32.lib winmm.lib gdi32.lib winspool.lib Ws2_32.lib shell32.lib ole32.lib oleaut32.lib uuid.lib comdlg32.lib advapi32.lib OgreMain.lib "libboost_thread-vc100-mt-1_42.lib" "libboost_date_time-vc100-mt-1_42.lib" OgreRTShaderSystem.lib OIS.lib kernel32.lib user32.lib gdi32.lib winspool.lib comdlg32.lib advapi32.lib shell32.lib ole32.lib oleaut32.lib uuid.lib odbc32.lib odbccp32.lib /MANIFEST /ManifestFile:"Release\Parkinson2011.exe.intermediate.manifest" /MANIFESTUAC:"level='asInvoker' uiAccess='false'" /DEBUG /PDB:"C:\Desarrollo\C\Solución ParkinsonRV 2001\Release\Parkinson2011.pdb" /SUBSYSTEM:WINDOWS /OPT:NOREF /OPT:ICF /LTCG /TLBID:1 /DYNAMICBASE /NXCOMPAT /IMPLIB:"C:\Desarrollo\C\Solución ParkinsonRV 2001\Release\Parkinson2011.lib" /MACHINE:X86 Release\Parkinson2011.exe.embed.manifest.res
Release\AppRunner.obj
Release\BaseApplication.obj
Release\DeviceDriver.obj
Release\Experiencia1.obj
Release\Experiencia2.obj
Release\ExperienciaManos.obj
Release\FileWriter.obj
Release\IKElement.obj
Release\J_Enviar.obj
Release\J_Recibir.obj
Release\MyCameraMan.obj
Release\Experiencia.obj
Release\Personaje.obj
Release\Socket.obj
Release\stdafx.obj
