^E:\PARKINSON\SOLUCIÓN PARKINSONRV 2001\PARKINSON2011\BASEAPPLICATION.CPP
/c /Ie:\OgreSDK\include\OIS /Ie:\OgreSDK\include\OGRE /I"C:\Program Files\OpenNI\Include" /I"C:\Program Files\PrimeSense\NITE\\Include" /Ie:\OgreSDK\Samples\Common\include /Ie:\OgreSDK\boost_1_42 /I"C:\Program Files\Advantech\Adsapi\Include" /ZI /nologo /W3 /WX- /Od /Oy- /D WIN32 /D _DEBUG /D _WINDOWS /D _MBCS /Gm /EHsc /RTC1 /MDd /GS /fp:precise /Zc:wchar_t /Zc:forScope /Yc"StdAfx.h" /Fp"Debug\Parkinson2011.pch" /Fo"Debug\\" /Fd"Debug\vc100.pdb" /Gd /TP /analyze- /errorReport:prompt E:\PARKINSON\SOLUCIÓN PARKINSONRV 2001\PARKINSON2011\BASEAPPLICATION.CPP
^E:\PARKINSON\SOLUCIÓN PARKINSONRV 2001\PARKINSON2011\TUTORIALAPPLICATION.CPP
/c /Ie:\OgreSDK\include\OIS /Ie:\OgreSDK\include\OGRE /Ie:\OgreSDK\Samples\Common\include /Ie:\OgreSDK\boost_1_42 /ZI /nologo /W3 /WX- /Od /Oy- /D WIN32 /D _DEBUG /D _WINDOWS /D _MBCS /Gm /EHsc /RTC1 /MDd /GS /fp:precise /Zc:wchar_t /Zc:forScope /Fo"Debug\\" /Fd"Debug\vc100.pdb" /Gd /TP /analyze- /errorReport:prompt E:\PARKINSON\SOLUCIÓN PARKINSONRV 2001\PARKINSON2011\TUTORIALAPPLICATION.CPP
^E:\PARKINSON\SOLUCIÓN PARKINSONRV 2001\PARKINSON2011\DEVICEDRIVER.CPP
/c /Ie:\OgreSDK\include\OIS /Ie:\OgreSDK\include\OGRE /I"C:\Program Files\OpenNI\Include" /I"C:\Program Files\PrimeSense\NITE\\Include" /Ie:\OgreSDK\Samples\Common\include /Ie:\OgreSDK\boost_1_42 /I"C:\Program Files\Advantech\Adsapi\Include" /ZI /nologo /W3 /WX- /Od /Oy- /D WIN32 /D _DEBUG /D _WINDOWS /D _MBCS /Gm /EHsc /RTC1 /MDd /GS /fp:precise /Zc:wchar_t /Zc:forScope /Yc"StdAfx.h" /Fp"Debug\Parkinson2011.pch" /Fo"Debug\\" /Fd"Debug\vc100.pdb" /Gd /TP /analyze- /errorReport:prompt E:\PARKINSON\SOLUCIÓN PARKINSONRV 2001\PARKINSON2011\DEVICEDRIVER.CPP
^E:\PARKINSON\SOLUCIÓN PARKINSONRV 2001\PARKINSON2011\EXPERIENCIA1.CPP
/c /Ie:\OgreSDK\include\OIS /Ie:\OgreSDK\include\OGRE /I"C:\Program Files\OpenNI\Include" /I"C:\Program Files\PrimeSense\NITE\\Include" /Ie:\OgreSDK\Samples\Common\include /Ie:\OgreSDK\boost_1_42 /I"C:\Program Files\Advantech\Adsapi\Include" /ZI /nologo /W3 /WX- /Od /Oy- /D WIN32 /D _DEBUG /D _WINDOWS /D _MBCS /Gm /EHsc /RTC1 /MDd /GS /fp:precise /Zc:wchar_t /Zc:forScope /Yc"StdAfx.h" /Fp"Debug\Parkinson2011.pch" /Fo"Debug\\" /Fd"Debug\vc100.pdb" /Gd /TP /analyze- /errorReport:prompt E:\PARKINSON\SOLUCIÓN PARKINSONRV 2001\PARKINSON2011\EXPERIENCIA1.CPP
^E:\PARKINSON\SOLUCIÓN PARKINSONRV 2001\PARKINSON2011\EXPERIENCIA2.CPP
/c /Ie:\OgreSDK\include\OIS /Ie:\OgreSDK\include\OGRE /I"C:\Program Files\OpenNI\Include" /I"C:\Program Files\PrimeSense\NITE\\Include" /Ie:\OgreSDK\Samples\Common\include /Ie:\OgreSDK\boost_1_42 /I"C:\Program Files\Advantech\Adsapi\Include" /ZI /nologo /W3 /WX- /Od /Oy- /D WIN32 /D _DEBUG /D _WINDOWS /D _MBCS /Gm /EHsc /RTC1 /MDd /GS /fp:precise /Zc:wchar_t /Zc:forScope /Yc"StdAfx.h" /Fp"Debug\Parkinson2011.pch" /Fo"Debug\\" /Fd"Debug\vc100.pdb" /Gd /TP /analyze- /errorReport:prompt E:\PARKINSON\SOLUCIÓN PARKINSONRV 2001\PARKINSON2011\EXPERIENCIA2.CPP
^E:\PARKINSON\SOLUCIÓN PARKINSONRV 2001\PARKINSON2011\EXPERIENCIAMANOS.CPP
/c /Ie:\OgreSDK\include\OIS /Ie:\OgreSDK\include\OGRE /I"C:\Program Files\OpenNI\Include" /I"C:\Program Files\PrimeSense\NITE\\Include" /Ie:\OgreSDK\Samples\Common\include /Ie:\OgreSDK\boost_1_42 /I"C:\Program Files\Advantech\Adsapi\Include" /ZI /nologo /W3 /WX- /Od /Oy- /D WIN32 /D _DEBUG /D _WINDOWS /D _MBCS /Gm /EHsc /RTC1 /MDd /GS /fp:precise /Zc:wchar_t /Zc:forScope /Yc"StdAfx.h" /Fp"Debug\Parkinson2011.pch" /Fo"Debug\\" /Fd"Debug\vc100.pdb" /Gd /TP /analyze- /errorReport:prompt E:\PARKINSON\SOLUCIÓN PARKINSONRV 2001\PARKINSON2011\EXPERIENCIAMANOS.CPP
^E:\PARKINSON\SOLUCIÓN PARKINSONRV 2001\PARKINSON2011\FILEWRITER.CPP
/c /Ie:\OgreSDK\include\OIS /Ie:\OgreSDK\include\OGRE /I"C:\Program Files\OpenNI\Include" /I"C:\Program Files\PrimeSense\NITE\\Include" /Ie:\OgreSDK\Samples\Common\include /Ie:\OgreSDK\boost_1_42 /I"C:\Program Files\Advantech\Adsapi\Include" /ZI /nologo /W3 /WX- /Od /Oy- /D WIN32 /D _DEBUG /D _WINDOWS /D _MBCS /Gm /EHsc /RTC1 /MDd /GS /fp:precise /Zc:wchar_t /Zc:forScope /Yc"StdAfx.h" /Fp"Debug\Parkinson2011.pch" /Fo"Debug\\" /Fd"Debug\vc100.pdb" /Gd /TP /analyze- /errorReport:prompt E:\PARKINSON\SOLUCIÓN PARKINSONRV 2001\PARKINSON2011\FILEWRITER.CPP
^E:\PARKINSON\SOLUCIÓN PARKINSONRV 2001\PARKINSON2011\IKELEMENT.CPP
/c /Ie:\OgreSDK\include\OIS /Ie:\OgreSDK\include\OGRE /I"C:\Program Files\OpenNI\Include" /I"C:\Program Files\PrimeSense\NITE\\Include" /Ie:\OgreSDK\Samples\Common\include /Ie:\OgreSDK\boost_1_42 /I"C:\Program Files\Advantech\Adsapi\Include" /ZI /nologo /W3 /WX- /Od /Oy- /D WIN32 /D _DEBUG /D _WINDOWS /D _MBCS /Gm /EHsc /RTC1 /MDd /GS /fp:precise /Zc:wchar_t /Zc:forScope /Yc"StdAfx.h" /Fp"Debug\Parkinson2011.pch" /Fo"Debug\\" /Fd"Debug\vc100.pdb" /Gd /TP /analyze- /errorReport:prompt E:\PARKINSON\SOLUCIÓN PARKINSONRV 2001\PARKINSON2011\IKELEMENT.CPP
^E:\PARKINSON\SOLUCIÓN PARKINSONRV 2001\PARKINSON2011\J_ENVIAR.CPP
/c /Ie:\OgreSDK\include\OIS /Ie:\OgreSDK\include\OGRE /I"C:\Program Files\OpenNI\Include" /I"C:\Program Files\PrimeSense\NITE\\Include" /Ie:\OgreSDK\Samples\Common\include /Ie:\OgreSDK\boost_1_42 /I"C:\Program Files\Advantech\Adsapi\Include" /ZI /nologo /W3 /WX- /Od /Oy- /D WIN32 /D _DEBUG /D _WINDOWS /D _MBCS /Gm /EHsc /RTC1 /MDd /GS /fp:precise /Zc:wchar_t /Zc:forScope /Yc"StdAfx.h" /Fp"Debug\Parkinson2011.pch" /Fo"Debug\\" /Fd"Debug\vc100.pdb" /Gd /TP /analyze- /errorReport:prompt E:\PARKINSON\SOLUCIÓN PARKINSONRV 2001\PARKINSON2011\J_ENVIAR.CPP
^E:\PARKINSON\SOLUCIÓN PARKINSONRV 2001\PARKINSON2011\J_RECIBIR.CPP
/c /Ie:\OgreSDK\include\OIS /Ie:\OgreSDK\include\OGRE /I"C:\Program Files\OpenNI\Include" /I"C:\Program Files\PrimeSense\NITE\\Include" /Ie:\OgreSDK\Samples\Common\include /Ie:\OgreSDK\boost_1_42 /I"C:\Program Files\Advantech\Adsapi\Include" /ZI /nologo /W3 /WX- /Od /Oy- /D WIN32 /D _DEBUG /D _WINDOWS /D _MBCS /Gm /EHsc /RTC1 /MDd /GS /fp:precise /Zc:wchar_t /Zc:forScope /Yc"StdAfx.h" /Fp"Debug\Parkinson2011.pch" /Fo"Debug\\" /Fd"Debug\vc100.pdb" /Gd /TP /analyze- /errorReport:prompt E:\PARKINSON\SOLUCIÓN PARKINSONRV 2001\PARKINSON2011\J_RECIBIR.CPP
^E:\PARKINSON\SOLUCIÓN PARKINSONRV 2001\PARKINSON2011\MYCAMERAMAN.CPP
/c /Ie:\OgreSDK\include\OIS /Ie:\OgreSDK\include\OGRE /I"C:\Program Files\OpenNI\Include" /I"C:\Program Files\PrimeSense\NITE\\Include" /Ie:\OgreSDK\Samples\Common\include /Ie:\OgreSDK\boost_1_42 /I"C:\Program Files\Advantech\Adsapi\Include" /ZI /nologo /W3 /WX- /Od /Oy- /D WIN32 /D _DEBUG /D _WINDOWS /D _MBCS /Gm /EHsc /RTC1 /MDd /GS /fp:precise /Zc:wchar_t /Zc:forScope /Yc"StdAfx.h" /Fp"Debug\Parkinson2011.pch" /Fo"Debug\\" /Fd"Debug\vc100.pdb" /Gd /TP /analyze- /errorReport:prompt E:\PARKINSON\SOLUCIÓN PARKINSONRV 2001\PARKINSON2011\MYCAMERAMAN.CPP
^E:\PARKINSON\SOLUCIÓN PARKINSONRV 2001\PARKINSON2011\EXPERIENCIA.CPP
/c /Ie:\OgreSDK\include\OIS /Ie:\OgreSDK\include\OGRE /I"C:\Program Files\OpenNI\Include" /I"C:\Program Files\PrimeSense\NITE\\Include" /Ie:\OgreSDK\Samples\Common\include /Ie:\OgreSDK\boost_1_42 /I"C:\Program Files\Advantech\Adsapi\Include" /ZI /nologo /W3 /WX- /Od /Oy- /D WIN32 /D _DEBUG /D _WINDOWS /D _MBCS /Gm /EHsc /RTC1 /MDd /GS /fp:precise /Zc:wchar_t /Zc:forScope /Yc"StdAfx.h" /Fp"Debug\Parkinson2011.pch" /Fo"Debug\\" /Fd"Debug\vc100.pdb" /Gd /TP /analyze- /errorReport:prompt E:\PARKINSON\SOLUCIÓN PARKINSONRV 2001\PARKINSON2011\EXPERIENCIA.CPP
^E:\PARKINSON\SOLUCIÓN PARKINSONRV 2001\PARKINSON2011\PERSONAJE.CPP
/c /Ie:\OgreSDK\include\OIS /Ie:\OgreSDK\include\OGRE /I"C:\Program Files\OpenNI\Include" /I"C:\Program Files\PrimeSense\NITE\\Include" /Ie:\OgreSDK\Samples\Common\include /Ie:\OgreSDK\boost_1_42 /I"C:\Program Files\Advantech\Adsapi\Include" /ZI /nologo /W3 /WX- /Od /Oy- /D WIN32 /D _DEBUG /D _WINDOWS /D _MBCS /Gm /EHsc /RTC1 /MDd /GS /fp:precise /Zc:wchar_t /Zc:forScope /Yc"StdAfx.h" /Fp"Debug\Parkinson2011.pch" /Fo"Debug\\" /Fd"Debug\vc100.pdb" /Gd /TP /analyze- /errorReport:prompt E:\PARKINSON\SOLUCIÓN PARKINSONRV 2001\PARKINSON2011\PERSONAJE.CPP
^E:\PARKINSON\SOLUCIÓN PARKINSONRV 2001\PARKINSON2011\STDAFX.CPP
/c /Ie:\OgreSDK\include\OIS /Ie:\OgreSDK\include\OGRE /I"C:\Program Files\OpenNI\Include" /I"C:\Program Files\PrimeSense\NITE\\Include" /Ie:\OgreSDK\Samples\Common\include /Ie:\OgreSDK\boost_1_42 /I"C:\Program Files\Advantech\Adsapi\Include" /ZI /nologo /W3 /WX- /Od /Oy- /D WIN32 /D _DEBUG /D _WINDOWS /D _MBCS /Gm /EHsc /RTC1 /MDd /GS /fp:precise /Zc:wchar_t /Zc:forScope /Yc"StdAfx.h" /Fp"Debug\Parkinson2011.pch" /Fo"Debug\\" /Fd"Debug\vc100.pdb" /Gd /TP /analyze- /errorReport:prompt E:\PARKINSON\SOLUCIÓN PARKINSONRV 2001\PARKINSON2011\STDAFX.CPP
^E:\PARKINSON\SOLUCIÓN PARKINSONRV 2001\PARKINSON2011\SOCKET.CPP
/c /Ie:\OgreSDK\include\OIS /Ie:\OgreSDK\include\OGRE /I"C:\Program Files\OpenNI\Include" /I"C:\Program Files\PrimeSense\NITE\\Include" /Ie:\OgreSDK\Samples\Common\include /Ie:\OgreSDK\boost_1_42 /I"C:\Program Files\Advantech\Adsapi\Include" /ZI /nologo /W3 /WX- /Od /Oy- /D WIN32 /D _DEBUG /D _WINDOWS /D _MBCS /Gm /EHsc /RTC1 /MDd /GS /fp:precise /Zc:wchar_t /Zc:forScope /Yc"StdAfx.h" /Fp"Debug\Parkinson2011.pch" /Fo"Debug\\" /Fd"Debug\vc100.pdb" /Gd /TP /analyze- /errorReport:prompt E:\PARKINSON\SOLUCIÓN PARKINSONRV 2001\PARKINSON2011\SOCKET.CPP
