18:39:49: Creating resource group General
18:39:49: Creating resource group Internal
18:39:49: Creating resource group Autodetect
18:39:49: SceneManagerFactory for type 'DefaultSceneManager' registered.
18:39:49: Registering ResourceManager for type Material
18:39:49: Registering ResourceManager for type Mesh
18:39:49: Registering ResourceManager for type Skeleton
18:39:49: MovableObjectFactory for type 'ParticleSystem' registered.
18:39:49: OverlayElementFactory for type Panel registered.
18:39:49: OverlayElementFactory for type BorderPanel registered.
18:39:49: OverlayElementFactory for type TextArea registered.
18:39:49: Registering ResourceManager for type Font
18:39:49: ArchiveFactory for archive type FileSystem registered.
18:39:49: ArchiveFactory for archive type Zip registered.
18:39:49: DDS codec registering
18:39:49: FreeImage version: 3.13.1
18:39:49: This program uses FreeImage, a free, open source image library supporting all common bitmap formats. See http://freeimage.sourceforge.net for details
18:39:49: Supported formats: bmp,ico,jpg,jif,jpeg,jpe,jng,koa,iff,lbm,mng,pbm,pbm,pcd,pcx,pgm,pgm,png,ppm,ppm,ras,tga,targa,tif,tiff,wap,wbmp,wbm,psd,cut,xbm,xpm,gif,hdr,g3,sgi,exr,j2k,j2c,jp2,pfm,pct,pict,pic,bay,bmq,cr2,crw,cs1,dc2,dcr,dng,erf,fff,hdr,k25,kdc,mdc,mos,mrw,nef,orf,pef,pxn,raf,raw,rdc,sr2,srf,arw,3fr,cine,ia,kc2,mef,nrw,qtk,rw2,sti,drf,dsc,ptx,cap,iiq,rwz
18:39:49: Registering ResourceManager for type HighLevelGpuProgram
18:39:49: Registering ResourceManager for type Compositor
18:39:49: MovableObjectFactory for type 'Entity' registered.
18:39:49: MovableObjectFactory for type 'Light' registered.
18:39:49: MovableObjectFactory for type 'BillboardSet' registered.
18:39:49: MovableObjectFactory for type 'ManualObject' registered.
18:39:49: MovableObjectFactory for type 'BillboardChain' registered.
18:39:49: MovableObjectFactory for type 'RibbonTrail' registered.
18:39:49: Loading library .\RenderSystem_Direct3D9
18:39:49: Installing plugin: D3D9 RenderSystem
18:39:49: D3D9 : Direct3D9 Rendering Subsystem created.
18:39:49: D3D9: Driver Detection Starts
18:39:49: D3D9: Driver Detection Ends
18:39:49: Plugin successfully installed
18:39:49: Loading library .\RenderSystem_GL
18:39:49: Installing plugin: GL RenderSystem
18:39:49: OpenGL Rendering Subsystem created.
18:39:50: Plugin successfully installed
18:39:50: Loading library .\Plugin_ParticleFX
18:39:50: Installing plugin: ParticleFX
18:39:50: Particle Emitter Type 'Point' registered
18:39:50: Particle Emitter Type 'Box' registered
18:39:50: Particle Emitter Type 'Ellipsoid' registered
18:39:50: Particle Emitter Type 'Cylinder' registered
18:39:50: Particle Emitter Type 'Ring' registered
18:39:50: Particle Emitter Type 'HollowEllipsoid' registered
18:39:50: Particle Affector Type 'LinearForce' registered
18:39:50: Particle Affector Type 'ColourFader' registered
18:39:50: Particle Affector Type 'ColourFader2' registered
18:39:50: Particle Affector Type 'ColourImage' registered
18:39:50: Particle Affector Type 'ColourInterpolator' registered
18:39:50: Particle Affector Type 'Scaler' registered
18:39:50: Particle Affector Type 'Rotator' registered
18:39:50: Particle Affector Type 'DirectionRandomiser' registered
18:39:50: Particle Affector Type 'DeflectorPlane' registered
18:39:50: Plugin successfully installed
18:39:50: Loading library .\Plugin_BSPSceneManager
18:39:50: Installing plugin: BSP Scene Manager
18:39:50: Plugin successfully installed
18:39:50: Loading library .\Plugin_CgProgramManager
18:39:50: Installing plugin: Cg Program Manager
18:39:50: Plugin successfully installed
18:39:50: Loading library .\Plugin_PCZSceneManager
18:39:50: Installing plugin: Portal Connected Zone Scene Manager
18:39:50: PCZone Factory Type 'ZoneType_Default' registered
18:39:50: Plugin successfully installed
18:39:50: Loading library .\Plugin_OctreeZone
18:39:50: Installing plugin: Octree Zone Factory
18:39:50: Plugin successfully installed
18:39:50: Loading library .\Plugin_OctreeSceneManager
18:39:50: Installing plugin: Octree & Terrain Scene Manager
18:39:50: Plugin successfully installed
18:39:50: *-*-* OGRE Initialising
18:39:50: *-*-* Version 1.7.2 (Cthugha)
18:39:50: Creating resource group Essential
18:39:50: Added resource location '../media/thumbnails' of type 'FileSystem' to resource group 'Essential'
18:39:50: Added resource location '../media/packs/SdkTrays.zip' of type 'Zip' to resource group 'Essential'
18:39:50: Added resource location '../media/' of type 'FileSystem' to resource group 'General'
18:39:50: Creating resource group Mios
18:39:50: Added resource location '../Resources/Habita' of type 'FileSystem' to resource group 'Mios'
18:39:50: Added resource location '../Resources/Tipo' of type 'FileSystem' to resource group 'Mios'
18:39:50: Added resource location '../Resources' of type 'FileSystem' to resource group 'Mios'
18:39:50: Added resource location '../Resources/Personaje' of type 'FileSystem' to resource group 'Mios'
18:39:50: Added resource location '../Resources/dianas' of type 'FileSystem' to resource group 'Mios'
18:39:50: Creating resource group Popular
18:39:50: Added resource location '../media/fonts' of type 'FileSystem' to resource group 'Popular'
18:39:50: D3D9 : RenderSystem Option: Allow NVPerfHUD = No
18:39:50: D3D9 : RenderSystem Option: FSAA = 0
18:39:50: D3D9 : RenderSystem Option: Floating-point mode = Fastest
18:39:50: D3D9 : RenderSystem Option: Full Screen = No
18:39:50: D3D9 : RenderSystem Option: Rendering Device = Monitor-1-AMD Radeon HD 6900 Series
18:39:50: D3D9 : RenderSystem Option: Resource Creation Policy = Create on active device
18:39:50: D3D9 : RenderSystem Option: VSync = No
18:39:50: D3D9 : RenderSystem Option: VSync Interval = 1
18:39:50: D3D9 : RenderSystem Option: Video Mode = 1024 x 768 @ 32-bit colour
18:39:50: D3D9 : RenderSystem Option: sRGB Gamma Conversion = No
18:40:05: CPU Identifier & Features
18:40:05: -------------------------
18:40:05:  *   CPU ID: GenuineIntel: Intel(R) Core(TM) i7 CPU         950  @ 3.07GHz
18:40:05:  *      SSE: yes
18:40:05:  *     SSE2: yes
18:40:05:  *     SSE3: yes
18:40:05:  *      MMX: yes
18:40:05:  *   MMXEXT: yes
18:40:05:  *    3DNOW: no
18:40:05:  * 3DNOWEXT: no
18:40:05:  *     CMOV: yes
18:40:05:  *      TSC: yes
18:40:05:  *      FPU: yes
18:40:05:  *      PRO: yes
18:40:05:  *       HT: no
18:40:05: -------------------------
18:40:05: *** Starting Win32GL Subsystem ***
18:40:05: GLRenderSystem::_createRenderWindow "Parkinson RV Render Window", 1024x768 windowed  miscParams: FSAA=8 FSAAHint= colourDepth=32 displayFrequency=0 gamma=false vsync=false vsyncInterval=1 
18:40:05: Created Win32Window 'Parkinson RV Render Window' : 1040x806, 32bpp
18:40:05: GL_VERSION = 4.4.12874 Compatibility Profile Context 14.100.0.0
18:40:05: GL_VENDOR = ATI Technologies Inc.
18:40:05: GL_RENDERER = AMD Radeon HD 6900 Series
18:40:05: GL_EXTENSIONS = GL_AMDX_debug_output GL_AMDX_vertex_shader_tessellator GL_AMD_blend_minmax_factor GL_AMD_conservative_depth GL_AMD_debug_output GL_AMD_depth_clamp_separate GL_AMD_draw_buffers_blend GL_AMD_framebuffer_sample_positions GL_AMD_multi_draw_indirect GL_AMD_name_gen_delete GL_AMD_performance_monitor GL_AMD_pinned_memory GL_AMD_query_buffer_object GL_AMD_sample_positions GL_AMD_seamless_cubemap_per_texture GL_AMD_shader_atomic_counter_ops GL_AMD_shader_stencil_export GL_AMD_shader_trace GL_AMD_texture_cube_map_array GL_AMD_texture_texture4 GL_AMD_transform_feedback3_lines_triangles GL_AMD_vertex_shader_layer GL_AMD_vertex_shader_tessellator GL_AMD_vertex_shader_viewport_index GL_ARB_ES2_compatibility GL_ARB_ES3_compatibility GL_ARB_arrays_of_arrays GL_ARB_base_instance GL_ARB_blend_func_extended GL_ARB_buffer_storage GL_ARB_clear_buffer_object GL_ARB_clear_texture GL_ARB_color_buffer_float GL_ARB_compatibility GL_ARB_compressed_texture_pixel_storage GL_ARB_compute_shader GL_ARB_conservative_depth GL_ARB_copy_buffer GL_ARB_copy_image GL_ARB_debug_output GL_ARB_depth_buffer_float GL_ARB_depth_clamp GL_ARB_depth_texture GL_ARB_draw_buffers GL_ARB_draw_buffers_blend GL_ARB_draw_elements_base_vertex GL_ARB_draw_indirect GL_ARB_draw_instanced GL_ARB_enhanced_layouts GL_ARB_explicit_attrib_location GL_ARB_explicit_uniform_location GL_ARB_fragment_coord_conventions GL_ARB_fragment_layer_viewport GL_ARB_fragment_program GL_ARB_fragment_program_shadow GL_ARB_fragment_shader GL_ARB_framebuffer_no_attachments GL_ARB_framebuffer_object GL_ARB_framebuffer_sRGB GL_ARB_geometry_shader4 GL_ARB_get_program_binary GL_ARB_gpu_shader5 GL_ARB_gpu_shader_fp64 GL_ARB_half_float_pixel GL_ARB_half_float_vertex GL_ARB_imaging GL_ARB_instanced_arrays GL_ARB_internalformat_query GL_ARB_internalformat_query2 GL_ARB_invalidate_subdata GL_ARB_map_buffer_alignment GL_ARB_map_buffer_range GL_ARB_multi_bind GL_ARB_multi_draw_indirect GL_ARB_multisample GL_ARB_multitexture GL_ARB_occlusion_query GL_ARB_occlusion_query2 GL_ARB_pixel_buffer_object GL_ARB_point_parameters GL_ARB_point_sprite GL_ARB_program_interface_query GL_ARB_provoking_vertex GL_ARB_query_buffer_object GL_ARB_sample_shading GL_ARB_sampler_objects GL_ARB_seamless_cube_map GL_ARB_seamless_cubemap_per_texture GL_ARB_separate_shader_objects GL_ARB_shader_atomic_counters GL_ARB_shader_bit_encoding GL_ARB_shader_image_load_store GL_ARB_shader_image_size GL_ARB_shader_objects GL_ARB_shader_precision GL_ARB_shader_stencil_export GL_ARB_shader_storage_buffer_object GL_ARB_shader_subroutine GL_ARB_shader_texture_lod GL_ARB_shading_language_100 GL_ARB_shading_language_420pack GL_ARB_shading_language_packing GL_ARB_shadow GL_ARB_shadow_ambient GL_ARB_stencil_texturing GL_ARB_sync GL_ARB_tessellation_shader GL_ARB_texture_border_clamp GL_ARB_texture_buffer_object GL_ARB_texture_buffer_object_rgb32 GL_ARB_texture_buffer_range GL_ARB_texture_compression GL_ARB_texture_compression_bptc GL_ARB_texture_compression_rgtc GL_ARB_texture_cube_map GL_ARB_texture_cube_map_array GL_ARB_texture_env_add GL_ARB_texture_env_combine GL_ARB_texture_env_crossbar GL_ARB_texture_env_dot3 GL_ARB_texture_float GL_ARB_texture_gather GL_ARB_texture_mirror_clamp_to_edge GL_ARB_texture_mirrored_repeat GL_ARB_texture_multisample GL_ARB_texture_non_power_of_two GL_ARB_texture_query_levels GL_ARB_texture_query_lod GL_ARB_texture_rectangle GL_ARB_texture_rg GL_ARB_texture_rgb10_a2ui GL_ARB_texture_snorm GL_ARB_texture_stencil8 GL_ARB_texture_storage GL_ARB_texture_storage_multisample GL_ARB_texture_swizzle GL_ARB_texture_view GL_ARB_timer_query GL_ARB_transform_feedback2 GL_ARB_transform_feedback3 GL_ARB_transform_feedback_instanced GL_ARB_transpose_matrix GL_ARB_uniform_buffer_object GL_ARB_vertex_array_bgra GL_ARB_vertex_array_object GL_ARB_vertex_attrib_64bit GL_ARB_vertex_attrib_binding GL_ARB_vertex_buffer_object GL_ARB_vertex_program GL_ARB_vertex_shader GL_ARB_vertex_type_10f_11f_11f_rev GL_ARB_vertex_type_2_10_10_10_rev GL_ARB_viewport_array GL_ARB_window_pos GL_ATI_draw_buffers GL_ATI_envmap_bumpmap GL_ATI_fragment_shader GL_ATI_separate_stencil GL_ATI_texture_compression_3dc GL_ATI_texture_env_combine3 GL_ATI_texture_float GL_ATI_texture_mirror_once GL_EXT_abgr GL_EXT_bgra GL_EXT_bindable_uniform GL_EXT_blend_color GL_EXT_blend_equation_separate GL_EXT_blend_func_separate GL_EXT_blend_minmax GL_EXT_blend_subtract GL_EXT_compiled_vertex_array GL_EXT_copy_buffer GL_EXT_copy_texture GL_EXT_direct_state_access GL_EXT_draw_buffers2 GL_EXT_draw_instanced GL_EXT_draw_range_elements GL_EXT_fog_coord GL_EXT_framebuffer_blit GL_EXT_framebuffer_multisample GL_EXT_framebuffer_object GL_EXT_framebuffer_sRGB GL_EXT_geometry_shader4 GL_EXT_gpu_program_parameters GL_EXT_gpu_shader4 GL_EXT_histogram GL_EXT_multi_draw_arrays GL_EXT_packed_depth_stencil GL_EXT_packed_float GL_EXT_packed_pixels GL_EXT_pixel_buffer_object GL_EXT_point_parameters GL_EXT_provoking_vertex GL_EXT_rescale_normal GL_EXT_secondary_color GL_EXT_separate_specular_color GL_EXT_shader_image_load_store GL_EXT_shader_integer_mix GL_EXT_shadow_funcs GL_EXT_stencil_wrap GL_EXT_subtexture GL_EXT_texgen_reflection GL_EXT_texture3D GL_EXT_texture_array GL_EXT_texture_buffer_object GL_EXT_texture_compression_bptc GL_EXT_texture_compression_latc GL_EXT_texture_compression_rgtc GL_EXT_texture_compression_s3tc GL_EXT_texture_cube_map GL_EXT_texture_edge_clamp GL_EXT_texture_env_add GL_EXT_texture_env_combine GL_EXT_texture_env_dot3 GL_EXT_texture_filter_anisotropic GL_EXT_texture_integer GL_EXT_texture_lod GL_EXT_texture_lod_bias GL_EXT_texture_mirror_clamp GL_EXT_texture_object GL_EXT_texture_rectangle GL_EXT_texture_sRGB GL_EXT_texture_sRGB_decode GL_EXT_texture_shared_exponent GL_EXT_texture_snorm GL_EXT_texture_storage GL_EXT_texture_swizzle GL_EXT_timer_query GL_EXT_transform_feedback GL_EXT_vertex_array GL_EXT_vertex_array_bgra GL_EXT_vertex_attrib_64bit GL_IBM_texture_mirrored_repeat GL_KHR_debug GL_KTX_buffer_region GL_NV_blend_square GL_NV_conditional_render GL_NV_copy_depth_to_color GL_NV_copy_image GL_NV_depth_buffer_float GL_NV_explicit_multisample GL_NV_float_buffer GL_NV_half_float GL_NV_primitive_restart GL_NV_texgen_reflection GL_NV_texture_barrier GL_SGIS_generate_mipmap GL_SGIS_texture_edge_clamp GL_SGIS_texture_lod GL_SUN_multi_draw_arrays GL_WIN_swap_hint WGL_EXT_swap_control
18:40:05: Supported WGL extensions: WGL_ARB_extensions_string WGL_ARB_pixel_format WGL_ATI_pixel_format_float WGL_ARB_pixel_format_float WGL_ARB_multisample WGL_EXT_swap_control WGL_EXT_swap_control_tear WGL_ARB_pbuffer WGL_ARB_render_texture WGL_ARB_make_current_read WGL_EXT_extensions_string WGL_ARB_buffer_region WGL_EXT_framebuffer_sRGB WGL_ATI_render_texture_rectangle WGL_EXT_pixel_format_packed_float WGL_I3D_genlock WGL_NV_swap_group WGL_ARB_create_context WGL_AMD_gpu_association WGL_AMDX_gpu_association WGL_ARB_create_context_profile WGL_NV_DX_interop WGL_NV_DX_interop2 WGL_NV_float_buffer
18:40:05: ***************************
18:40:05: *** GL Renderer Started ***
18:40:05: ***************************
18:40:05: Registering ResourceManager for type GpuProgram
18:40:05: GLSL support detected
18:40:05: GL: Using GL_EXT_framebuffer_object for rendering to textures (best)
18:40:05: FBO PF_UNKNOWN depth/stencil support: D0S1 D0S4 D0S8 D0S16 D16S0 D24S0 D32S0 Packed-D24S8 
18:40:05: FBO PF_L8 depth/stencil support: D0S0 D0S1 D0S4 D0S8 D0S16 D16S0 D24S0 D32S0 Packed-D24S8 
18:40:05: FBO PF_L16 depth/stencil support: D0S0 D0S1 D0S4 D0S8 D0S16 D16S0 D24S0 D32S0 Packed-D24S8 
18:40:05: FBO PF_A8 depth/stencil support: D0S0 D0S1 D0S4 D0S8 D0S16 D16S0 D24S0 D32S0 Packed-D24S8 
18:40:05: FBO PF_A4L4 depth/stencil support: D0S0 D0S1 D0S4 D0S8 D0S16 D16S0 D24S0 D32S0 Packed-D24S8 
18:40:05: FBO PF_BYTE_LA depth/stencil support: D0S0 D0S1 D0S4 D0S8 D0S16 D16S0 D24S0 D32S0 Packed-D24S8 
18:40:05: FBO PF_R5G6B5 depth/stencil support: D0S0 D0S1 D0S4 D0S8 D0S16 D16S0 D24S0 D32S0 Packed-D24S8 
18:40:05: FBO PF_B5G6R5 depth/stencil support: D0S0 D0S1 D0S4 D0S8 D0S16 D16S0 D24S0 D32S0 Packed-D24S8 
18:40:05: FBO PF_A4R4G4B4 depth/stencil support: D0S0 D0S1 D0S4 D0S8 D0S16 D16S0 D24S0 D32S0 Packed-D24S8 
18:40:05: FBO PF_A1R5G5B5 depth/stencil support: D0S0 D0S1 D0S4 D0S8 D0S16 D16S0 D24S0 D32S0 Packed-D24S8 
18:40:05: FBO PF_R8G8B8 depth/stencil support: D0S0 D0S1 D0S4 D0S8 D0S16 D16S0 D24S0 D32S0 Packed-D24S8 
18:40:05: FBO PF_B8G8R8 depth/stencil support: D0S0 D0S1 D0S4 D0S8 D0S16 D16S0 D24S0 D32S0 Packed-D24S8 
18:40:05: FBO PF_A8R8G8B8 depth/stencil support: D0S0 D0S1 D0S4 D0S8 D0S16 D16S0 D24S0 D32S0 Packed-D24S8 
18:40:05: FBO PF_B8G8R8A8 depth/stencil support: D0S0 D0S1 D0S4 D0S8 D0S16 D16S0 D24S0 D32S0 Packed-D24S8 
18:40:05: FBO PF_A2R10G10B10 depth/stencil support: D0S0 D0S1 D0S4 D0S8 D0S16 D16S0 D24S0 D32S0 Packed-D24S8 
18:40:05: FBO PF_A2B10G10R10 depth/stencil support: D0S0 D0S1 D0S4 D0S8 D0S16 D16S0 D24S0 D32S0 Packed-D24S8 
18:40:05: FBO PF_FLOAT16_RGB depth/stencil support: D0S0 D0S1 D0S4 D0S8 D0S16 D16S0 D24S0 D32S0 Packed-D24S8 
18:40:05: FBO PF_FLOAT16_RGBA depth/stencil support: D0S0 D0S1 D0S4 D0S8 D0S16 D16S0 D24S0 D32S0 Packed-D24S8 
18:40:05: FBO PF_FLOAT32_RGB depth/stencil support: D0S0 D0S1 D0S4 D0S8 D0S16 D16S0 D24S0 D32S0 Packed-D24S8 
18:40:05: FBO PF_FLOAT32_RGBA depth/stencil support: D0S0 D0S1 D0S4 D0S8 D0S16 D16S0 D24S0 D32S0 Packed-D24S8 
18:40:05: FBO PF_X8R8G8B8 depth/stencil support: D0S0 D0S1 D0S4 D0S8 D0S16 D16S0 D24S0 D32S0 Packed-D24S8 
18:40:05: FBO PF_X8B8G8R8 depth/stencil support: D0S0 D0S1 D0S4 D0S8 D0S16 D16S0 D24S0 D32S0 Packed-D24S8 
18:40:05: FBO PF_SHORT_RGBA depth/stencil support: D0S0 D0S1 D0S4 D0S8 D0S16 D16S0 D24S0 D32S0 Packed-D24S8 
18:40:05: FBO PF_R3G3B2 depth/stencil support: D0S0 D0S1 D0S4 D0S8 D0S16 D16S0 D24S0 D32S0 Packed-D24S8 
18:40:05: FBO PF_FLOAT16_R depth/stencil support: D0S0 D0S1 D0S4 D0S8 D0S16 D16S0 D24S0 D32S0 Packed-D24S8 
18:40:05: FBO PF_FLOAT32_R depth/stencil support: D0S0 D0S1 D0S4 D0S8 D0S16 D16S0 D24S0 D32S0 Packed-D24S8 
18:40:05: FBO PF_SHORT_GR depth/stencil support: D0S0 D0S1 D0S4 D0S8 D0S16 D16S0 D24S0 D32S0 Packed-D24S8 
18:40:05: FBO PF_FLOAT16_GR depth/stencil support: D0S0 D0S1 D0S4 D0S8 D0S16 D16S0 D24S0 D32S0 Packed-D24S8 
18:40:05: FBO PF_FLOAT32_GR depth/stencil support: D0S0 D0S1 D0S4 D0S8 D0S16 D16S0 D24S0 D32S0 Packed-D24S8 
18:40:05: FBO PF_SHORT_RGB depth/stencil support: D0S0 D0S1 D0S4 D0S8 D0S16 D16S0 D24S0 D32S0 Packed-D24S8 
18:40:05: [GL] : Valid FBO targets PF_UNKNOWN PF_L8 PF_L16 PF_A8 PF_A4L4 PF_BYTE_LA PF_R5G6B5 PF_B5G6R5 PF_A4R4G4B4 PF_A1R5G5B5 PF_R8G8B8 PF_B8G8R8 PF_A8R8G8B8 PF_B8G8R8A8 PF_A2R10G10B10 PF_A2B10G10R10 PF_FLOAT16_RGB PF_FLOAT16_RGBA PF_FLOAT32_RGB PF_FLOAT32_RGBA PF_X8R8G8B8 PF_X8B8G8R8 PF_SHORT_RGBA PF_R3G3B2 PF_FLOAT16_R PF_FLOAT32_R PF_SHORT_GR PF_FLOAT16_GR PF_FLOAT32_GR PF_SHORT_RGB 
18:40:05: RenderSystem capabilities
18:40:05: -------------------------
18:40:05: RenderSystem Name: OpenGL Rendering Subsystem
18:40:05: GPU Vendor: ati
18:40:05: Device Name: AMD Radeon HD 6900 Series
18:40:05: Driver Version: 4.4.12874.0
18:40:05:  * Fixed function pipeline: yes
18:40:05:  * Hardware generation of mipmaps: yes
18:40:05:  * Texture blending: yes
18:40:05:  * Anisotropic texture filtering: yes
18:40:05:  * Dot product texture operation: yes
18:40:05:  * Cube mapping: yes
18:40:05:  * Hardware stencil buffer: yes
18:40:05:    - Stencil depth: 8
18:40:05:    - Two sided stencil support: yes
18:40:05:    - Wrap stencil values: yes
18:40:05:  * Hardware vertex / index buffers: yes
18:40:05:  * Vertex programs: yes
18:40:05:  * Number of floating-point constants for vertex programs: 256
18:40:05:  * Number of integer constants for vertex programs: 0
18:40:05:  * Number of boolean constants for vertex programs: 0
18:40:05:  * Fragment programs: yes
18:40:05:  * Number of floating-point constants for fragment programs: 256
18:40:05:  * Number of integer constants for fragment programs: 0
18:40:05:  * Number of boolean constants for fragment programs: 0
18:40:05:  * Geometry programs: yes
18:40:05:  * Number of floating-point constants for geometry programs: 256
18:40:05:  * Number of integer constants for geometry programs: 0
18:40:05:  * Number of boolean constants for geometry programs: 0
18:40:05:  * Supported Shader Profiles: arbfp1 arbvp1 glsl gp4gp gpu_gp nvgp4 ps_1_1 ps_1_2 ps_1_3 ps_1_4
18:40:05:  * Texture Compression: yes
18:40:05:    - DXT: yes
18:40:05:    - VTC: no
18:40:05:    - PVRTC: no
18:40:05:  * Scissor Rectangle: yes
18:40:05:  * Hardware Occlusion Query: yes
18:40:05:  * User clip planes: yes
18:40:05:  * VET_UBYTE4 vertex element type: yes
18:40:05:  * Infinite far plane projection: yes
18:40:05:  * Hardware render-to-texture: yes
18:40:05:  * Floating point textures: yes
18:40:05:  * Non-power-of-two textures: yes
18:40:05:  * Volume textures: yes
18:40:05:  * Multiple Render Targets: 8
18:40:05:    - With different bit depths: yes
18:40:05:  * Point Sprites: yes
18:40:05:  * Extended point parameters: yes
18:40:05:  * Max Point Size: 8192
18:40:05:  * Vertex texture fetch: yes
18:40:05:  * Number of world matrices: 0
18:40:05:  * Number of texture units: 18
18:40:05:  * Stencil buffer depth: 8
18:40:05:  * Number of vertex blend matrices: 0
18:40:05:    - Max vertex textures: 18
18:40:05:    - Vertex textures shared: yes
18:40:05:  * Render to Vertex Buffer : no
18:40:05:  * GL 1.5 without VBO workaround: no
18:40:05:  * Frame Buffer objects: yes
18:40:05:  * Frame Buffer objects (ARB extension): no
18:40:05:  * Frame Buffer objects (ATI extension): no
18:40:05:  * PBuffer support: yes
18:40:05:  * GL 1.5 without HW-occlusion workaround: no
18:40:05: Registering ResourceManager for type Texture
18:40:05: Using FSAA from GL_ARB_multisample extension.
18:40:05: DefaultWorkQueue('Root') initialising on thread 004CD098.
18:40:05: DefaultWorkQueue('Root')::WorkerFunc - thread 0712D170 starting.
18:40:05: DefaultWorkQueue('Root')::WorkerFunc - thread 0712B438 starting.
18:40:05: DefaultWorkQueue('Root')::WorkerFunc - thread 07138D40 starting.
18:40:05: DefaultWorkQueue('Root')::WorkerFunc - thread 07139538 starting.
18:40:05: DefaultWorkQueue('Root')::WorkerFunc - thread 07138540 starting.
18:40:05: DefaultWorkQueue('Root')::WorkerFunc - thread 071384B0 starting.
18:40:05: Particle Renderer Type 'billboard' registered
18:40:05: DefaultWorkQueue('Root')::WorkerFunc - thread 071265A8 starting.
18:40:05: DefaultWorkQueue('Root')::WorkerFunc - thread 0712AA18 starting.
18:40:05: SceneManagerFactory for type 'BspSceneManager' registered.
18:40:05: Registering ResourceManager for type BspLevel
18:40:05: SceneManagerFactory for type 'PCZSceneManager' registered.
18:40:05: MovableObjectFactory for type 'PCZLight' registered.
18:40:05: MovableObjectFactory for type 'Portal' registered.
18:40:05: MovableObjectFactory for type 'AntiPortal' registered.
18:40:05: PCZone Factory Type 'ZoneType_Octree' registered
18:40:05: PCZone Factory Type 'ZoneType_Terrain' registered
18:40:05: SceneManagerFactory for type 'OctreeSceneManager' registered.
18:40:05: SceneManagerFactory for type 'TerrainSceneManager' registered.
18:40:05: Parsing scripts for resource group Autodetect
18:40:05: Finished parsing scripts for resource group Autodetect
18:40:05: Parsing scripts for resource group Essential
18:40:05: Parsing script SdkTrays.material
18:40:05: Parsing script SdkTrays.fontdef
18:40:05: Parsing script SdkTrays.overlay
18:40:05: Bad element attribute line: '# you can offset the image to change the cursor "hotspot"' for element SdkTrays/Cursor in overlay 
18:40:05: Texture: sdk_cursor.png: Loading 1 faces(PF_A8R8G8B8,32x32x1) with 5 hardware generated mipmaps from Image. Internal format is PF_A8R8G8B8,32x32x1.
18:40:05: Texture: sdk_tray.png: Loading 1 faces(PF_A8R8G8B8,64x64x1) with 5 hardware generated mipmaps from Image. Internal format is PF_A8R8G8B8,64x64x1.
18:40:05: Texture: sdk_button_up.png: Loading 1 faces(PF_A8R8G8B8,128x32x1) with 5 hardware generated mipmaps from Image. Internal format is PF_A8R8G8B8,128x32x1.
18:40:05: Texture: sdk_text_box.png: Loading 1 faces(PF_A8R8G8B8,32x32x1) with 5 hardware generated mipmaps from Image. Internal format is PF_A8R8G8B8,32x32x1.
18:40:05: Texture: sdk_mini_tray.png: Loading 1 faces(PF_A8R8G8B8,32x32x1) with 5 hardware generated mipmaps from Image. Internal format is PF_A8R8G8B8,32x32x1.
18:40:05: Texture: sdk_track.png: Loading 1 faces(PF_A8R8G8B8,16x32x1) with 5 hardware generated mipmaps from Image. Internal format is PF_A8R8G8B8,16x32x1.
18:40:05: Texture: sdk_handle.png: Loading 1 faces(PF_A8R8G8B8,16x16x1) with 4 hardware generated mipmaps from Image. Internal format is PF_A8R8G8B8,16x16x1.
18:40:05: Texture: sdk_mini_text_box.png: Loading 1 faces(PF_A8R8G8B8,32x32x1) with 5 hardware generated mipmaps from Image. Internal format is PF_A8R8G8B8,32x32x1.
18:40:05: Texture: sdk_label.png: Loading 1 faces(PF_A8R8G8B8,32x32x1) with 5 hardware generated mipmaps from Image. Internal format is PF_A8R8G8B8,32x32x1.
18:40:05: Texture: sdk_separator.png: Loading 1 faces(PF_A8R8G8B8,64x16x1) with 5 hardware generated mipmaps from Image. Internal format is PF_A8R8G8B8,64x16x1.
18:40:05: Texture: sdk_logo.png: Loading 1 faces(PF_A8R8G8B8,128x64x1) with 5 hardware generated mipmaps from Image. Internal format is PF_A8R8G8B8,128x64x1.
18:40:05: Texture: sdk_shade.png: Loading 1 faces(PF_A8R8G8B8,64x48x1) with 5 hardware generated mipmaps from Image. Internal format is PF_A8R8G8B8,64x48x1.
18:40:05: Texture: sdk_frame.png: Loading 1 faces(PF_A8R8G8B8,32x32x1) with 5 hardware generated mipmaps from Image. Internal format is PF_A8R8G8B8,32x32x1.
18:40:05: Texture: sdk_mini_text_box_over.png: Loading 1 faces(PF_A8R8G8B8,32x32x1) with 5 hardware generated mipmaps from Image. Internal format is PF_A8R8G8B8,32x32x1.
18:40:05: Texture: sdk_pulse.png: Loading 1 faces(PF_R8G8B8,8x1x1) with 3 hardware generated mipmaps from Image. Internal format is PF_X8R8G8B8,8x1x1.
18:40:05: Finished parsing scripts for resource group Essential
18:40:05: Parsing scripts for resource group General
18:40:05: Finished parsing scripts for resource group General
18:40:05: Parsing scripts for resource group Internal
18:40:05: Finished parsing scripts for resource group Internal
18:40:05: Parsing scripts for resource group Mios
18:40:05: Parsing script Habita.material
18:40:05: Parsing script personaje.material
18:40:05: Parsing script Tipo.material
18:40:05: Parsing script black.material
18:40:05: Parsing script luz.material
18:40:05: Parsing script personaxe.material
18:40:05: Parsing script luz.material
18:40:05: Finished parsing scripts for resource group Mios
18:40:05: Parsing scripts for resource group Popular
18:40:05: Parsing script sample.fontdef
18:40:05: Finished parsing scripts for resource group Popular
18:40:05: *** Initializing OIS ***
18:40:06: Mesh: Loading habita.mesh.
18:40:06: Skeleton: Loading Habita.skeleton
18:40:06: OGRE EXCEPTION(6:FileNotFoundException): Cannot locate resource Habita.skeleton in resource group Mios or any other group. in ResourceGroupManager::openResource at ..\..\..\..\OgreMain\src\OgreResourceGroupManager.cpp (line 753)
18:40:06: Unable to load skeleton Habita.skeleton for Mesh habita.mesh. This Mesh will not be animated. You can ignore this message if you are using an offline tool.
18:40:06: WARNING: habita.mesh is an older format ([MeshSerializer_v1.40]); you should upgrade it as soon as possible using the OgreMeshUpgrade tool.
18:40:06: Texture: TxParedes.jpg: Loading 1 faces(PF_R8G8B8,2048x2048x1) with 5 hardware generated mipmaps from Image. Internal format is PF_X8R8G8B8,2048x2048x1.
18:40:06: Texture: TxLampara.tif: Loading 1 faces(PF_R8G8B8,2048x1024x1) with 5 hardware generated mipmaps from Image. Internal format is PF_X8R8G8B8,2048x1024x1.
18:40:06: Texture: TxChan.jpg: Loading 1 faces(PF_R8G8B8,2048x2048x1) with 5 hardware generated mipmaps from Image. Internal format is PF_X8R8G8B8,2048x2048x1.
18:40:06: Texture: habita-lambert2SG-MesaA.jpg: Loading 1 faces(PF_R8G8B8,2048x2048x1) with 5 hardware generated mipmaps from Image. Internal format is PF_X8R8G8B8,2048x2048x1.
18:40:06: Texture: habita-lambert2SG-MesaC.jpg: Loading 1 faces(PF_R8G8B8,2048x2048x1) with 5 hardware generated mipmaps from Image. Internal format is PF_X8R8G8B8,2048x2048x1.
18:40:06: Texture: habita-lambert2SG-MesaB.jpg: Loading 1 faces(PF_R8G8B8,2048x2048x1) with 5 hardware generated mipmaps from Image. Internal format is PF_X8R8G8B8,2048x2048x1.
18:40:06: Texture: SillaATx.jpg: Loading 1 faces(PF_R8G8B8,2048x2048x1) with 5 hardware generated mipmaps from Image. Internal format is PF_X8R8G8B8,2048x2048x1.
18:40:06: Texture: SillaBTx.jpg: Loading 1 faces(PF_R8G8B8,2048x2048x1) with 5 hardware generated mipmaps from Image. Internal format is PF_X8R8G8B8,2048x2048x1.
18:40:06: Texture: habita-lambert2SG-RodapieB.jpg: Loading 1 faces(PF_R8G8B8,2048x2048x1) with 5 hardware generated mipmaps from Image. Internal format is PF_X8R8G8B8,2048x2048x1.
18:40:06: Texture: diana.jpg: Loading 1 faces(PF_R8G8B8,425x425x1) with 5 hardware generated mipmaps from Image. Internal format is PF_X8R8G8B8,425x425x1.
18:40:06: Mesh: Loading diana.mesh.
18:40:06: WARNING: diana.mesh is an older format ([MeshSerializer_v1.40]); you should upgrade it as soon as possible using the OgreMeshUpgrade tool.
18:40:06: Mesh: Loading personaxe.mesh.
18:40:06: Skeleton: Loading personaxe.skeleton
18:40:06: WARNING: personaxe.mesh is an older format ([MeshSerializer_v1.40]); you should upgrade it as soon as possible using the OgreMeshUpgrade tool.
18:40:06: OGRE EXCEPTION(6:FileNotFoundException): Cannot locate resource eyebrows_color.tif in resource group Mios or any other group. in ResourceGroupManager::openResource at ..\..\..\..\OgreMain\src\OgreResourceGroupManager.cpp (line 753)
18:40:06: Error loading texture eyebrows_color.tif. Texture layer will be blank. Loading the texture failed with the following exception: OGRE EXCEPTION(6:FileNotFoundException): Cannot locate resource eyebrows_color.tif in resource group Mios or any other group. in ResourceGroupManager::openResource at ..\..\..\..\OgreMain\src\OgreResourceGroupManager.cpp (line 753)
18:40:06: OGRE EXCEPTION(6:FileNotFoundException): Cannot locate resource eyelashes_color.tif in resource group Mios or any other group. in ResourceGroupManager::openResource at ..\..\..\..\OgreMain\src\OgreResourceGroupManager.cpp (line 753)
18:40:06: Error loading texture eyelashes_color.tif. Texture layer will be blank. Loading the texture failed with the following exception: OGRE EXCEPTION(6:FileNotFoundException): Cannot locate resource eyelashes_color.tif in resource group Mios or any other group. in ResourceGroupManager::openResource at ..\..\..\..\OgreMain\src\OgreResourceGroupManager.cpp (line 753)
18:40:06: OGRE EXCEPTION(6:FileNotFoundException): Cannot locate resource eyes_color.tif in resource group Mios or any other group. in ResourceGroupManager::openResource at ..\..\..\..\OgreMain\src\OgreResourceGroupManager.cpp (line 753)
18:40:06: Error loading texture eyes_color.tif. Texture layer will be blank. Loading the texture failed with the following exception: OGRE EXCEPTION(6:FileNotFoundException): Cannot locate resource eyes_color.tif in resource group Mios or any other group. in ResourceGroupManager::openResource at ..\..\..\..\OgreMain\src\OgreResourceGroupManager.cpp (line 753)
18:40:06: Texture: body_colorC.jpg: Loading 1 faces(PF_R8G8B8,1024x1024x1) with 5 hardware generated mipmaps from Image. Internal format is PF_X8R8G8B8,1024x1024x1.
18:40:06: WARNING: the mesh 'personaxe.mesh' includes vertices without bone assignments. Those vertices will transform to wrong position when skeletal animation enabled. To eliminate this, assign at least one bone assignment per vertex on your mesh.
18:40:06: Mesh: Loading sphere.mesh.
18:40:06: WARNING: sphere.mesh is an older format ([MeshSerializer_v1.40]); you should upgrade it as soon as possible using the OgreMeshUpgrade tool.
