material lambert1
{
	technique
	{
		pass
		{
			ambient 0 0 0 1
			diffuse 0.5 0.5 0.5 1
			specular 0 0 0 1
			emissive 0 0 0
		}
	}
}
material CorpoM
{
	technique
	{
		pass
		{
			ambient 0.4 0.4 0.4 1
			diffuse 0.5 0.5 0.5 0.7
			specular 0 0 0 1
			emissive 0 0 0

			texture_unit
			{
				texture body_colorC.jpg
				tex_coord_set 0
				colour_op modulate
				scale 1 1
				scroll 0 0
				rotate 0
			}
		}
	}
}

material CabezaM
{
	technique
	{
		pass
		{
			ambient 0.4 0.4 0.4 1
			diffuse 1 1 1 1
			specular 0 0 0 1
			emissive 0 0 0

			texture_unit
			{
				texture head_color.jpg
				tex_coord_set 0
				colour_op modulate
				scale 1 1
				scroll 0 0
				rotate 0
			}
		}
	}
}

material eyebrows1
{
	technique
	{
		pass
		{
			ambient 0.4 0.4 0.4 1
			diffuse 1 1 1 1
			specular 0 0 0 1
			emissive 0 0 0

			scene_blend alpha_blend
			depth_write off

			texture_unit
			{
				texture eyebrows_color.tif
				tex_coord_set 0
				colour_op modulate
				scale 1 1
				scroll 0 0
				rotate 0
			}
		}
	}
}
material eyelashes1
{
	technique
	{
		pass
		{
			ambient 0.4 0.4 0.4 1
			diffuse 1 1 1 1
			specular 0 0 0 1
			emissive 0 0 0

			scene_blend alpha_blend
			depth_write off

			texture_unit
			{
				texture eyelashes_color.tif
				tex_coord_set 0
				colour_op modulate
				scale 1 1
				scroll 0 0
				rotate 0
			}
		}
	}
}
material iris1
{
	technique
	{
		pass
		{
			ambient 0.4 0.4 0.4 1
			diffuse 1 1 1 1
			specular 0 0 0 1
			emissive 0 0 0

			texture_unit
			{
				texture eyes_color.tif
				tex_coord_set 0
				colour_op modulate
				scale 1 1
				scroll 0 0
				rotate 0
			}
		}
	}
}
material eye1
{
	technique
	{
		pass
		{
			ambient 0.4 0.4 0.4 1
			diffuse 1 1 1 1
			specular 0 0 0 1
			emissive 0 0 0
		}
	}
}